^E:\2016-II\LTM\NGUYENVANCHUNG_20140476_6\BAI_1\SERVER\STDAFX.CPP
E:\2016-II\LTM\NGUYENVANCHUNG_20140476_6\BAI_1\SERVER\DEBUG\SERVER.PCH
E:\2016-II\LTM\NGUYENVANCHUNG_20140476_6\BAI_1\SERVER\DEBUG\VC140.PDB
E:\2016-II\LTM\NGUYENVANCHUNG_20140476_6\BAI_1\SERVER\DEBUG\VC140.IDB
E:\2016-II\LTM\NGUYENVANCHUNG_20140476_6\BAI_1\SERVER\DEBUG\STDAFX.OBJ
^E:\2016-II\LTM\NGUYENVANCHUNG_20140476_6\BAI_1\SERVER\SERVER.CPP
E:\2016-II\LTM\NGUYENVANCHUNG_20140476_6\BAI_1\SERVER\DEBUG\VC140.PDB
E:\2016-II\LTM\NGUYENVANCHUNG_20140476_6\BAI_1\SERVER\DEBUG\VC140.IDB
E:\2016-II\LTM\NGUYENVANCHUNG_20140476_6\BAI_1\SERVER\DEBUG\SERVER.OBJ
