^E:\2016-II\LTM\NGUYENVANCHUNG_20140476_4\BAI_2\CLIENT\DEBUG\CLIENT.OBJ
/OUT:"E:\2016-II\LTM\NGUYENVANCHUNG_20140476_4\BAI_2\DEBUG\CLIENT.EXE" /INCREMENTAL /NOLOGO KERNEL32.LIB USER32.LIB GDI32.LIB WINSPOOL.LIB COMDLG32.LIB ADVAPI32.LIB SHELL32.LIB OLE32.LIB OLEAUT32.LIB UUID.LIB ODBC32.LIB ODBCCP32.LIB /MANIFEST /MANIFESTUAC:"level='asInvoker' uiAccess='false'" /manifest:embed /DEBUG:FASTLINK /PDB:"E:\2016-II\LTM\NGUYENVANCHUNG_20140476_4\BAI_2\DEBUG\CLIENT.PDB" /TLBID:1 /DYNAMICBASE /NXCOMPAT /IMPLIB:"E:\2016-II\LTM\NGUYENVANCHUNG_20140476_4\BAI_2\DEBUG\CLIENT.LIB" /MACHINE:X86 DEBUG\CLIENT.OBJ
^E:\2016-II\LTM\NGUYENVANCHUNG_20140476_5\BAI_2\CLIENT\DEBUG\CLIENT.OBJ
/OUT:"E:\2016-II\LTM\NGUYENVANCHUNG_20140476_5\BAI_2\DEBUG\CLIENT.EXE" /INCREMENTAL /NOLOGO KERNEL32.LIB USER32.LIB GDI32.LIB WINSPOOL.LIB COMDLG32.LIB ADVAPI32.LIB SHELL32.LIB OLE32.LIB OLEAUT32.LIB UUID.LIB ODBC32.LIB ODBCCP32.LIB /MANIFEST /MANIFESTUAC:"level='asInvoker' uiAccess='false'" /manifest:embed /DEBUG:FASTLINK /PDB:"E:\2016-II\LTM\NGUYENVANCHUNG_20140476_5\BAI_2\DEBUG\CLIENT.PDB" /TLBID:1 /DYNAMICBASE /NXCOMPAT /IMPLIB:"E:\2016-II\LTM\NGUYENVANCHUNG_20140476_5\BAI_2\DEBUG\CLIENT.LIB" /MACHINE:X86 DEBUG\CLIENT.OBJ
^E:\2016-II\LTM\NGUYENVANCHUNG_20140476_6\BAI_2\CLIENT\DEBUG\CLIENT.OBJ
/OUT:"E:\2016-II\LTM\NGUYENVANCHUNG_20140476_6\BAI_2\DEBUG\CLIENT.EXE" /INCREMENTAL /NOLOGO KERNEL32.LIB USER32.LIB GDI32.LIB WINSPOOL.LIB COMDLG32.LIB ADVAPI32.LIB SHELL32.LIB OLE32.LIB OLEAUT32.LIB UUID.LIB ODBC32.LIB ODBCCP32.LIB /MANIFEST /MANIFESTUAC:"level='asInvoker' uiAccess='false'" /manifest:embed /DEBUG:FASTLINK /PDB:"E:\2016-II\LTM\NGUYENVANCHUNG_20140476_6\BAI_2\DEBUG\CLIENT.PDB" /TLBID:1 /DYNAMICBASE /NXCOMPAT /IMPLIB:"E:\2016-II\LTM\NGUYENVANCHUNG_20140476_6\BAI_2\DEBUG\CLIENT.LIB" /MACHINE:X86 DEBUG\CLIENT.OBJ
^E:\2016-II\LTM\NGUYENVANCHUNG_20140476_7\BAI_2\CLIENT\DEBUG\CLIENT.OBJ
/OUT:"E:\2016-II\LTM\NGUYENVANCHUNG_20140476_7\BAI_2\DEBUG\CLIENT.EXE" /INCREMENTAL /NOLOGO KERNEL32.LIB USER32.LIB GDI32.LIB WINSPOOL.LIB COMDLG32.LIB ADVAPI32.LIB SHELL32.LIB OLE32.LIB OLEAUT32.LIB UUID.LIB ODBC32.LIB ODBCCP32.LIB /MANIFEST /MANIFESTUAC:"level='asInvoker' uiAccess='false'" /manifest:embed /DEBUG:FASTLINK /PDB:"E:\2016-II\LTM\NGUYENVANCHUNG_20140476_7\BAI_2\DEBUG\CLIENT.PDB" /TLBID:1 /DYNAMICBASE /NXCOMPAT /IMPLIB:"E:\2016-II\LTM\NGUYENVANCHUNG_20140476_7\BAI_2\DEBUG\CLIENT.LIB" /MACHINE:X86 DEBUG\CLIENT.OBJ
