^E:\2016-II\LTM\NGUYENVANCHUNG_20140476_4\BAI_2\CLIENT\CLIENT.CPP
E:\2016-II\LTM\NGUYENVANCHUNG_20140476_4\BAI_2\CLIENT\DEBUG\VC140.PDB
E:\2016-II\LTM\NGUYENVANCHUNG_20140476_4\BAI_2\CLIENT\DEBUG\VC140.IDB
E:\2016-II\LTM\NGUYENVANCHUNG_20140476_4\BAI_2\CLIENT\DEBUG\CLIENT.OBJ
