BM
  ON<ieIN
         N
EMdTC3SNeRGT
  S<
   I	OL!G+GY	d&S7
                    ART0_
GOENe>	8FOYx~jb6
S:RI    RzIH:IOEHA
   AL1_Sb	T
                 AIy35
                      ONxNH'R
                             EXAOt
                                  I\R0ieIT
                                          NS&MOx0i6R
	T	SN;IO;:_G+Id3OTSOt
                                  MCRL=N/
TOE^(                                    I
     M
USxNOb
      GS


:B^M.A"I4VAb5OG*~OB7
                    N+T*IYT!EWS1Ex,
A	RY7O&IENI9
                  ^MOxw0C;NT
                            NIE9Rg:A
7\FbU
;H,     R
         A=*
            H
             ON
               =
                UM
HHc:I	OI*VI'I
  I
"R
  N
   RT0[TKTb$N
OS5
   R   OE,NE0RNT	
T1AN                    YNE:BRTexs,[G'R[NJ
;
 MFTN6[.T
d&Tt

ITA<S-R


E$	I	G0*I'GCEF
                         EIOA3_+U
xqN-NTZN8_                       EG
O
0Ex+ADxVU!EN.ENSNC1UU1Rc=PA3


O1[L+
*'HS:E

      ON<T*NOHAO
                to;M
5MAbGG	
  TTv*H;NGL=
:E_@I=NxNOb6
            LE*:
                sRN
                   I6
                     b+CETI
Nk6!UUeN
        EETBtM
              T
               +NY.Id(VEA
                         I1^M=M#
y'!RA   RY7O0IGL        EAIyo   GPE
JA
6UW*
    EP
It
  M
   CRN7G+G*'
6NBDS*<EI)CRH7WE
        M
O        Te!P9]H'GW
;
 SM*
    ONx[N&RDde?:5zE$
Ri;_;BGYI'HSN	4SK'NH
d&
,

E5EA~<(ON)IOHRE5
                MOT7J!	Tb3AtITL4SNeR
	1E
          N*e1
YN
2
 A2UC)GL-       t"
NRHI-             Nk9I6#

RT?A.	G*5	
1MOxn7M;IET    A
S-E
PNS;E=?RP7IS'\Idms

Ex[T&ZOc5

ART0_
     TNS&
NkR=SbNRIHI
           t
           A=H2OS6R
                   TB
E^6
   ;
    UNA
       NIO<RTRF9TA6
my
T0I
RA6^
    E^<0[V'RG*'ES
RNeNK\tRRT
       MAEyy-EN@DH
                  SNS1CIdk-*_NIt<=LIO;;[Nb

                                          E*7E6
NA
T1TbKII:E7MRI,*I
NSEB
    Ot	I
Nm71    S
         O	
L7TGbN.c1DEyI:E
               A
Rd9^H+RHI

         sEMXOOxIT'I
                    CHN
O
 !Mc"OH=W+
GD
  CI:1IR	N
RD9TC'RGCd<SMAS=A,I
NSEB
    O5Mc7OA6TALENBDS$:
                      MTY/RE0Idmy
A=OA+W'BGbT1E
MH?*I
NBO
A+SN%RST
	Ocy65R@DN1
U                 ,RA6R	K
S65^MA=B-
I        ENOT
I
-EId
U   ,RA6R	K
YtG-RTHOCI
to>
   NTDbIHN
GTAK!M7 S=\Mcd1
U              ,RA6R	K
S&MMT,M=O,^ITT
E^5
   N>ON)
        IS
          EWE6

MTYxSTnRE*>
I
5OS+I/GLL
         O0MTe"L9CGFYN
                      7IROO!c-
                              NXH&O
I
 xE1
    AVA;RTTNI'
              Mc