^E:\2016-II\LTM\NGUYENVANCHUNG_20140476_7\BAI_3\SERVER\SERVER.CPP
E:\2016-II\LTM\NGUYENVANCHUNG_20140476_7\BAI_3\SERVER\DEBUG\VC140.PDB
E:\2016-II\LTM\NGUYENVANCHUNG_20140476_7\BAI_3\SERVER\DEBUG\VC140.IDB
E:\2016-II\LTM\NGUYENVANCHUNG_20140476_7\BAI_3\SERVER\DEBUG\SERVER.OBJ
