^E:\2016-II\LTM\NGUYENVANCHUNG_20140476_5\BAI_1\CLIENT\CLIENT.CPP
/c /ZI /nologo /W3 /WX- /sdl- /Od /Oy- /D _MBCS /Gm /EHsc /RTC1 /MDd /GS /fp:precise /Zc:wchar_t /Zc:forScope /Zc:inline /Fo"DEBUG\\" /Fd"DEBUG\VC140.PDB" /Gd /TP /analyze- E:\2016-II\LTM\NGUYENVANCHUNG_20140476_5\BAI_1\CLIENT\CLIENT.CPP
^E:\2016-II\LTM\NGUYENVANCHUNG_20140476_6\BAI_1\CLIENT\CLIENT.CPP
/c /ZI /nologo /W3 /WX- /sdl- /Od /Oy- /D _MBCS /Gm /EHsc /RTC1 /MDd /GS /fp:precise /Zc:wchar_t /Zc:forScope /Zc:inline /Fo"DEBUG\\" /Fd"DEBUG\VC140.PDB" /Gd /TP /analyze- E:\2016-II\LTM\NGUYENVANCHUNG_20140476_6\BAI_1\CLIENT\CLIENT.CPP
^E:\2016-II\LTM\NGUYENVANCHUNG_20140476_7\BAI_1\CLIENT\CLIENT.CPP
/c /ZI /nologo /W3 /WX- /sdl- /Od /Oy- /D _MBCS /Gm /EHsc /RTC1 /MDd /GS /fp:precise /Zc:wchar_t /Zc:forScope /Zc:inline /Fo"DEBUG\\" /Fd"DEBUG\VC140.PDB" /Gd /TP /analyze- E:\2016-II\LTM\NGUYENVANCHUNG_20140476_7\BAI_1\CLIENT\CLIENT.CPP
^E:\2016-II\LTM\NGUYENVANCHUNG_20140476_8\BAI_1\CLIENT\CLIENT.CPP
/c /ZI /nologo /W3 /WX- /sdl- /Od /Oy- /D _MBCS /Gm /EHsc /RTC1 /MDd /GS /fp:precise /Zc:wchar_t /Zc:forScope /Zc:inline /Fo"DEBUG\\" /Fd"DEBUG\VC140.PDB" /Gd /TP /analyze- E:\2016-II\LTM\NGUYENVANCHUNG_20140476_8\BAI_1\CLIENT\CLIENT.CPP
