^E:\2016-II\LTM\NGUYENVANCHUNG_20140476_8\BAI_1\CLIENT\DEBUG\CLIENT.OBJ
E:\2016-II\LTM\NGUYENVANCHUNG_20140476_8\BAI_1\DEBUG\CLIENT.ILK
E:\2016-II\LTM\NGUYENVANCHUNG_20140476_8\BAI_1\DEBUG\CLIENT.EXE
E:\2016-II\LTM\NGUYENVANCHUNG_20140476_8\BAI_1\DEBUG\CLIENT.PDB
