^E:\2016-II\LTM\NGUYENVANCHUNG_20140476_1\BAI_2\SERVER\SERVER.CPP
E:\2016-II\LTM\NGUYENVANCHUNG_20140476_1\BAI_2\SERVER\DEBUG\VC140.PDB
E:\2016-II\LTM\NGUYENVANCHUNG_20140476_1\BAI_2\SERVER\DEBUG\VC140.IDB
E:\2016-II\LTM\NGUYENVANCHUNG_20140476_1\BAI_2\SERVER\DEBUG\SERVER.OBJ
