^E:\2016-II\LTM\NGUYENVANCHUNG_20140476_4\BAI_2\CLIENT\DEBUG\CLIENT.OBJ
E:\2016-II\LTM\NGUYENVANCHUNG_20140476_4\BAI_2\DEBUG\CLIENT.ILK
E:\2016-II\LTM\NGUYENVANCHUNG_20140476_4\BAI_2\DEBUG\CLIENT.EXE
E:\2016-II\LTM\NGUYENVANCHUNG_20140476_4\BAI_2\DEBUG\CLIENT.PDB
^E:\2016-II\LTM\NGUYENVANCHUNG_20140476_5\BAI_2\CLIENT\DEBUG\CLIENT.OBJ
E:\2016-II\LTM\NGUYENVANCHUNG_20140476_5\BAI_2\DEBUG\CLIENT.ILK
E:\2016-II\LTM\NGUYENVANCHUNG_20140476_5\BAI_2\DEBUG\CLIENT.EXE
E:\2016-II\LTM\NGUYENVANCHUNG_20140476_5\BAI_2\DEBUG\CLIENT.PDB
