^E:\2016-II\LTM\NGUYENVANCHUNG_20140476_6\BAI_2\SERVER\STDAFX.CPP
/c /ZI /nologo /W3 /WX- /sdl- /Od /Oy- /D WIN32 /D _DEBUG /D _WINDOWS /D _UNICODE /D UNICODE /Gm /EHsc /RTC1 /MDd /GS /fp:precise /Zc:wchar_t /Zc:forScope /Zc:inline /Yc"stdafx.h" /Fp"DEBUG\SERVER.PCH" /Fo"DEBUG\\" /Fd"DEBUG\VC140.PDB" /Gd /TP /analyze- E:\2016-II\LTM\NGUYENVANCHUNG_20140476_6\BAI_2\SERVER\STDAFX.CPP
^E:\2016-II\LTM\NGUYENVANCHUNG_20140476_6\BAI_2\SERVER\SERVER.CPP
/c /ZI /nologo /W3 /WX- /sdl- /Od /Oy- /D WIN32 /D _DEBUG /D _WINDOWS /D _UNICODE /D UNICODE /Gm /EHsc /RTC1 /MDd /GS /fp:precise /Zc:wchar_t /Zc:forScope /Zc:inline /Yu"stdafx.h" /Fp"DEBUG\SERVER.PCH" /Fo"DEBUG\\" /Fd"DEBUG\VC140.PDB" /Gd /TP /analyze- E:\2016-II\LTM\NGUYENVANCHUNG_20140476_6\BAI_2\SERVER\SERVER.CPP
